]0;IPython: lilian_besson/SMPyBandits.gitReading argument from command line, importing the configuration module from arg = configuration_nonstationary (module = configuration_nonstationary in directory )...

Using Upsilon_T = 4 break-points (time when at least one arm changes), and C_T = 12 change-points (number of changes of all arms).
For this problem, we compute the Delta^change and Delta^opt...
min_change_on_mean = 0.09999999999999998
min_optimality_gap = 0.09999999999999998
DELTA_for_MUCB = 0.1
EPSILON_for_CUSUM = 0.1
Loaded experiments configuration from 'configuration_nonstationnary.py' :
configuration['policies'] = [{'params': {'listOfMeans': [[0.4, 0.5, 0.9], [0.5, 0.4, 0.7], [0.6, 0.3, 0.5], [0.7, 0.2, 0.3], [0.8, 0.1, 0.1]], 'reset_for_all_change': True, 'reset_for_suboptimal_change': False, 'policy': <class 'Policies.UCB.UCB'>, 'changePoints': [0, 4000, 8000, 12000, 16000]}, 'archtype': <class 'Policies.OracleSequentiallyRestartPolicy.OracleSequentiallyRestartPolicy'>}, {'params': {'listOfMeans': [[0.4, 0.5, 0.9], [0.5, 0.4, 0.7], [0.6, 0.3, 0.5], [0.7, 0.2, 0.3], [0.8, 0.1, 0.1]], 'reset_for_all_change': True, 'reset_for_suboptimal_change': False, 'policy': <class 'Policies.klUCB.klUCB'>, 'changePoints': [0, 4000, 8000, 12000, 16000]}, 'archtype': <class 'Policies.OracleSequentiallyRestartPolicy.OracleSequentiallyRestartPolicy'>}, {'params': {'alpha0': 100, 'max_nb_random_events': 4, 'gamma0': 10, 'horizon': 20000}, 'archtype': <class 'Policies.Exp3S.Exp3S'>}, {'params': {'alpha0': 100, 'max_nb_random_events': 4, 'gamma0': 1, 'horizon': 20000}, 'archtype': <class 'Policies.Exp3S.Exp3S'>}, {'params': {'alpha0': 100, 'max_nb_random_events': 4, 'gamma0': 0.01, 'horizon': 20000}, 'archtype': <class 'Policies.Exp3S.Exp3S'>}, {'params': {'alpha0': 50, 'max_nb_random_events': 4, 'gamma0': 10, 'horizon': 20000}, 'archtype': <class 'Policies.Exp3S.Exp3S'>}, {'params': {'alpha0': 50, 'max_nb_random_events': 4, 'gamma0': 1, 'horizon': 20000}, 'archtype': <class 'Policies.Exp3S.Exp3S'>}, {'params': {'alpha0': 50, 'max_nb_random_events': 4, 'gamma0': 0.01, 'horizon': 20000}, 'archtype': <class 'Policies.Exp3S.Exp3S'>}, {'params': {'alpha0': 1, 'max_nb_random_events': 4, 'gamma0': 10, 'horizon': 20000}, 'archtype': <class 'Policies.Exp3S.Exp3S'>}, {'params': {'alpha0': 1, 'max_nb_random_events': 4, 'gamma0': 1, 'horizon': 20000}, 'archtype': <class 'Policies.Exp3S.Exp3S'>}, {'params': {'alpha0': 1, 'max_nb_random_events': 4, 'gamma0': 0.01, 'horizon': 20000}, 'archtype': <class 'Policies.Exp3S.Exp3S'>}, {'params': {'horizon': 20000}, 'archtype': <class 'Policies.Exp3R.Exp3R'>}, {'params': {'delta': 0.1, 'horizon': 20000, 'w': 600, 'policy': <class 'Policies.UCB.UCB'>}, 'archtype': <class 'Policies.Monitored_UCB.Monitored_IndexPolicy'>}, {'params': {'delta': 0.1, 'horizon': 20000, 'w': 600, 'policy': <class 'Policies.klUCB.klUCB'>}, 'archtype': <class 'Policies.Monitored_UCB.Monitored_IndexPolicy'>}, {'params': {'max_nb_random_events': 4, 'epsilon': 0.1, 'horizon': 20000, 'policy': <class 'Policies.UCB.UCB'>, 'lazy_detect_change_only_x_steps': 20}, 'archtype': <class 'Policies.CUSUM_UCB.CUSUM_IndexPolicy'>}, {'params': {'max_nb_random_events': 4, 'epsilon': 0.1, 'horizon': 20000, 'policy': <class 'Policies.klUCB.klUCB'>, 'lazy_detect_change_only_x_steps': 20}, 'archtype': <class 'Policies.CUSUM_UCB.CUSUM_IndexPolicy'>}, {'params': {'horizon': 20000, 'policy': <class 'Policies.klUCB.klUCB'>, 'per_arm_restart': True, 'lazy_detect_change_only_x_steps': 10, 'max_nb_random_events': 4, 'lazy_try_value_s_only_x_steps': 10}, 'archtype': <class 'Policies.GLR_UCB.GaussianGLR_IndexPolicy_WithDeterministicExploration'>}, {'params': {'policy': <class 'Policies.klUCB_forGLR.klUCB_forGLR'>, 'per_arm_restart': True, 'alpha0': 0.003854248477823425, 'delta': 0.002041241452319315, 'lazy_detect_change_only_x_steps': 10, 'lazy_try_value_s_only_x_steps': 10}, 'archtype': <class 'Policies.GLR_UCB.BernoulliGLR_IndexPolicy_WithDeterministicExploration'>, 'change_label': 'GLR-klUCB(Local, $\\alpha_0=1$)'}, {'params': {'policy': <class 'Policies.klUCB_forGLR.klUCB_forGLR'>, 'per_arm_restart': False, 'alpha0': 0.00222525139619506, 'delta': 0.0035355339059327377, 'lazy_detect_change_only_x_steps': 10, 'lazy_try_value_s_only_x_steps': 10}, 'archtype': <class 'Policies.GLR_UCB.BernoulliGLR_IndexPolicy_WithDeterministicExploration'>, 'change_label': 'GLR-klUCB(Global, $\\alpha_0=1$)'}]
configuration['environment'] = [{'params': {'listOfMeans': [[0.4, 0.5, 0.9], [0.5, 0.4, 0.7], [0.6, 0.3, 0.5], [0.7, 0.2, 0.3], [0.8, 0.1, 0.1]], 'changePoints': [0, 4000, 8000, 12000, 16000]}, 'arm_type': <class 'Arms.Bernoulli.Bernoulli'>}]
Warning: Non interactive simulations, switching from 'TkAgg' backend to 'agg'...
plots/ is already a directory here...
Number of policies in this comparison: 19
Time horizon: 20000
Number of repetitions: 1000
Sampling rate for plotting, delta_t_plot: 50
Number of jobs for parallelization: 12
Using this dictionary to create a new environment:
 {'params': {'listOfMeans': [[0.4, 0.5, 0.9], [0.5, 0.4, 0.7], [0.6, 0.3, 0.5], [0.7, 0.2, 0.3], [0.8, 0.1, 0.1]], 'changePoints': [0, 4000, 8000, 12000, 16000]}, 'arm_type': <class 'Arms.Bernoulli.Bernoulli'>}
  Special MAB problem, with arm (possibly) changing at every time step, read from a dictionnary 'configuration' = {'params': {'listOfMeans': [[0.4, 0.5, 0.9], [0.5, 0.4, 0.7], [0.6, 0.3, 0.5], [0.7, 0.2, 0.3], [0.8, 0.1, 0.1]], 'changePoints': [0, 4000, 8000, 12000, 16000]}, 'arm_type': <class 'Arms.Bernoulli.Bernoulli'>} ...
 - with 'arm_type' = <class 'Arms.Bernoulli.Bernoulli'>
 - with 'params' = {'listOfMeans': [[0.4, 0.5, 0.9], [0.5, 0.4, 0.7], [0.6, 0.3, 0.5], [0.7, 0.2, 0.3], [0.8, 0.1, 0.1]], 'changePoints': [0, 4000, 8000, 12000, 16000]}
 - with 'listOfMeans' = [[0.4 0.5 0.9]
 [0.5 0.4 0.7]
 [0.6 0.3 0.5]
 [0.7 0.2 0.3]
 [0.8 0.1 0.1]]
 - with 'changePoints' = [0, 4000, 8000, 12000, 16000]


 ==> Creating the dynamic arms ...
   - with 'nbArms' = 3
   - with 'arms' = [B(0.4), B(0.5), B(0.9)]
 - Initial draw of 'means' = [0.4 0.5 0.9]
Number of environments to try: 1


Evaluating environment: PieceWiseStationaryMAB(nbArms: 3, arms: [B(0.4), B(0.5), B(0.9)])
- Adding policy #1 = {'params': {'listOfMeans': [[0.4, 0.5, 0.9], [0.5, 0.4, 0.7], [0.6, 0.3, 0.5], [0.7, 0.2, 0.3], [0.8, 0.1, 0.1]], 'reset_for_all_change': True, 'reset_for_suboptimal_change': False, 'policy': <class 'Policies.UCB.UCB'>, 'changePoints': [0, 4000, 8000, 12000, 16000]}, 'archtype': <class 'Policies.OracleSequentiallyRestartPolicy.OracleSequentiallyRestartPolicy'>} ...
  Creating this policy from a dictionnary 'self.cfg['policies'][0]' = {'params': {'listOfMeans': [[0.4, 0.5, 0.9], [0.5, 0.4, 0.7], [0.6, 0.3, 0.5], [0.7, 0.2, 0.3], [0.8, 0.1, 0.1]], 'reset_for_all_change': True, 'reset_for_suboptimal_change': False, 'policy': <class 'Policies.UCB.UCB'>, 'changePoints': [0, 4000, 8000, 12000, 16000]}, 'archtype': <class 'Policies.OracleSequentiallyRestartPolicy.OracleSequentiallyRestartPolicy'>} ...
Info: creating a new policy Oracle-UCB, with change points = [[4000, 8000, 12000, 16000], [4000, 8000, 12000, 16000], [4000, 8000, 12000, 16000]]...
- Adding policy #2 = {'params': {'listOfMeans': [[0.4, 0.5, 0.9], [0.5, 0.4, 0.7], [0.6, 0.3, 0.5], [0.7, 0.2, 0.3], [0.8, 0.1, 0.1]], 'reset_for_all_change': True, 'reset_for_suboptimal_change': False, 'policy': <class 'Policies.klUCB.klUCB'>, 'changePoints': [0, 4000, 8000, 12000, 16000]}, 'archtype': <class 'Policies.OracleSequentiallyRestartPolicy.OracleSequentiallyRestartPolicy'>} ...
  Creating this policy from a dictionnary 'self.cfg['policies'][1]' = {'params': {'listOfMeans': [[0.4, 0.5, 0.9], [0.5, 0.4, 0.7], [0.6, 0.3, 0.5], [0.7, 0.2, 0.3], [0.8, 0.1, 0.1]], 'reset_for_all_change': True, 'reset_for_suboptimal_change': False, 'policy': <class 'Policies.klUCB.klUCB'>, 'changePoints': [0, 4000, 8000, 12000, 16000]}, 'archtype': <class 'Policies.OracleSequentiallyRestartPolicy.OracleSequentiallyRestartPolicy'>} ...
Info: creating a new policy Oracle-klUCB, with change points = [[4000, 8000, 12000, 16000], [4000, 8000, 12000, 16000], [4000, 8000, 12000, 16000]]...
- Adding policy #3 = {'params': {'alpha0': 100, 'max_nb_random_events': 4, 'gamma0': 10, 'horizon': 20000}, 'archtype': <class 'Policies.Exp3S.Exp3S'>} ...
  Creating this policy from a dictionnary 'self.cfg['policies'][2]' = {'params': {'alpha0': 100, 'max_nb_random_events': 4, 'gamma0': 10, 'horizon': 20000}, 'archtype': <class 'Policies.Exp3S.Exp3S'>} ...
For Exp3S: by using the formula with known T and Upsilon_T, gamma = 0.06386764444199698...
For Exp3S: by using the formula with known T, alpha = 5e-05...
- Adding policy #4 = {'params': {'alpha0': 100, 'max_nb_random_events': 4, 'gamma0': 1, 'horizon': 20000}, 'archtype': <class 'Policies.Exp3S.Exp3S'>} ...
  Creating this policy from a dictionnary 'self.cfg['policies'][3]' = {'params': {'alpha0': 100, 'max_nb_random_events': 4, 'gamma0': 1, 'horizon': 20000}, 'archtype': <class 'Policies.Exp3S.Exp3S'>} ...
For Exp3S: by using the formula with known T and Upsilon_T, gamma = 0.06386764444199698...
For Exp3S: by using the formula with known T, alpha = 5e-05...
- Adding policy #5 = {'params': {'alpha0': 100, 'max_nb_random_events': 4, 'gamma0': 0.01, 'horizon': 20000}, 'archtype': <class 'Policies.Exp3S.Exp3S'>} ...
  Creating this policy from a dictionnary 'self.cfg['policies'][4]' = {'params': {'alpha0': 100, 'max_nb_random_events': 4, 'gamma0': 0.01, 'horizon': 20000}, 'archtype': <class 'Policies.Exp3S.Exp3S'>} ...
For Exp3S: by using the formula with known T and Upsilon_T, gamma = 0.06386764444199698...
For Exp3S: by using the formula with known T, alpha = 5e-05...
- Adding policy #6 = {'params': {'alpha0': 50, 'max_nb_random_events': 4, 'gamma0': 10, 'horizon': 20000}, 'archtype': <class 'Policies.Exp3S.Exp3S'>} ...
  Creating this policy from a dictionnary 'self.cfg['policies'][5]' = {'params': {'alpha0': 50, 'max_nb_random_events': 4, 'gamma0': 10, 'horizon': 20000}, 'archtype': <class 'Policies.Exp3S.Exp3S'>} ...
For Exp3S: by using the formula with known T and Upsilon_T, gamma = 0.06386764444199698...
For Exp3S: by using the formula with known T, alpha = 5e-05...
- Adding policy #7 = {'params': {'alpha0': 50, 'max_nb_random_events': 4, 'gamma0': 1, 'horizon': 20000}, 'archtype': <class 'Policies.Exp3S.Exp3S'>} ...
  Creating this policy from a dictionnary 'self.cfg['policies'][6]' = {'params': {'alpha0': 50, 'max_nb_random_events': 4, 'gamma0': 1, 'horizon': 20000}, 'archtype': <class 'Policies.Exp3S.Exp3S'>} ...
For Exp3S: by using the formula with known T and Upsilon_T, gamma = 0.06386764444199698...
For Exp3S: by using the formula with known T, alpha = 5e-05...
- Adding policy #8 = {'params': {'alpha0': 50, 'max_nb_random_events': 4, 'gamma0': 0.01, 'horizon': 20000}, 'archtype': <class 'Policies.Exp3S.Exp3S'>} ...
  Creating this policy from a dictionnary 'self.cfg['policies'][7]' = {'params': {'alpha0': 50, 'max_nb_random_events': 4, 'gamma0': 0.01, 'horizon': 20000}, 'archtype': <class 'Policies.Exp3S.Exp3S'>} ...
For Exp3S: by using the formula with known T and Upsilon_T, gamma = 0.06386764444199698...
For Exp3S: by using the formula with known T, alpha = 5e-05...
- Adding policy #9 = {'params': {'alpha0': 1, 'max_nb_random_events': 4, 'gamma0': 10, 'horizon': 20000}, 'archtype': <class 'Policies.Exp3S.Exp3S'>} ...
  Creating this policy from a dictionnary 'self.cfg['policies'][8]' = {'params': {'alpha0': 1, 'max_nb_random_events': 4, 'gamma0': 10, 'horizon': 20000}, 'archtype': <class 'Policies.Exp3S.Exp3S'>} ...
For Exp3S: by using the formula with known T and Upsilon_T, gamma = 0.06386764444199698...
For Exp3S: by using the formula with known T, alpha = 5e-05...
- Adding policy #10 = {'params': {'alpha0': 1, 'max_nb_random_events': 4, 'gamma0': 1, 'horizon': 20000}, 'archtype': <class 'Policies.Exp3S.Exp3S'>} ...
  Creating this policy from a dictionnary 'self.cfg['policies'][9]' = {'params': {'alpha0': 1, 'max_nb_random_events': 4, 'gamma0': 1, 'horizon': 20000}, 'archtype': <class 'Policies.Exp3S.Exp3S'>} ...
For Exp3S: by using the formula with known T and Upsilon_T, gamma = 0.06386764444199698...
For Exp3S: by using the formula with known T, alpha = 5e-05...
- Adding policy #11 = {'params': {'alpha0': 1, 'max_nb_random_events': 4, 'gamma0': 0.01, 'horizon': 20000}, 'archtype': <class 'Policies.Exp3S.Exp3S'>} ...
  Creating this policy from a dictionnary 'self.cfg['policies'][10]' = {'params': {'alpha0': 1, 'max_nb_random_events': 4, 'gamma0': 0.01, 'horizon': 20000}, 'archtype': <class 'Policies.Exp3S.Exp3S'>} ...
For Exp3S: by using the formula with known T and Upsilon_T, gamma = 0.06386764444199698...
For Exp3S: by using the formula with known T, alpha = 5e-05...
- Adding policy #12 = {'params': {'horizon': 20000}, 'archtype': <class 'Policies.Exp3R.Exp3R'>} ...
  Creating this policy from a dictionnary 'self.cfg['policies'][11]' = {'params': {'horizon': 20000}, 'archtype': <class 'Policies.Exp3R.Exp3R'>} ...
Warning: the policy Exp3R($T=20000$, $c=2.42$, $\alpha=0.01$) tried to use default value of gamma = 0.040398192643770314 but could not set attribute self.policy.gamma to gamma (maybe it's using an Exp3 with a non-constant value of gamma).
- Adding policy #13 = {'params': {'delta': 0.1, 'horizon': 20000, 'w': 600, 'policy': <class 'Policies.UCB.UCB'>}, 'archtype': <class 'Policies.Monitored_UCB.Monitored_IndexPolicy'>} ...
  Creating this policy from a dictionnary 'self.cfg['policies'][12]' = {'params': {'delta': 0.1, 'horizon': 20000, 'w': 600, 'policy': <class 'Policies.UCB.UCB'>}, 'archtype': <class 'Policies.Monitored_UCB.Monitored_IndexPolicy'>} ...
- Adding policy #14 = {'params': {'delta': 0.1, 'horizon': 20000, 'w': 600, 'policy': <class 'Policies.klUCB.klUCB'>}, 'archtype': <class 'Policies.Monitored_UCB.Monitored_IndexPolicy'>} ...
  Creating this policy from a dictionnary 'self.cfg['policies'][13]' = {'params': {'delta': 0.1, 'horizon': 20000, 'w': 600, 'policy': <class 'Policies.klUCB.klUCB'>}, 'archtype': <class 'Policies.Monitored_UCB.Monitored_IndexPolicy'>} ...
- Adding policy #15 = {'params': {'max_nb_random_events': 4, 'epsilon': 0.1, 'horizon': 20000, 'policy': <class 'Policies.UCB.UCB'>, 'lazy_detect_change_only_x_steps': 20}, 'archtype': <class 'Policies.CUSUM_UCB.CUSUM_IndexPolicy'>} ...
  Creating this policy from a dictionnary 'self.cfg['policies'][14]' = {'params': {'max_nb_random_events': 4, 'epsilon': 0.1, 'horizon': 20000, 'policy': <class 'Policies.UCB.UCB'>, 'lazy_detect_change_only_x_steps': 20}, 'archtype': <class 'Policies.CUSUM_UCB.CUSUM_IndexPolicy'>} ...
- Adding policy #16 = {'params': {'max_nb_random_events': 4, 'epsilon': 0.1, 'horizon': 20000, 'policy': <class 'Policies.klUCB.klUCB'>, 'lazy_detect_change_only_x_steps': 20}, 'archtype': <class 'Policies.CUSUM_UCB.CUSUM_IndexPolicy'>} ...
  Creating this policy from a dictionnary 'self.cfg['policies'][15]' = {'params': {'max_nb_random_events': 4, 'epsilon': 0.1, 'horizon': 20000, 'policy': <class 'Policies.klUCB.klUCB'>, 'lazy_detect_change_only_x_steps': 20}, 'archtype': <class 'Policies.CUSUM_UCB.CUSUM_IndexPolicy'>} ...
- Adding policy #17 = {'params': {'horizon': 20000, 'policy': <class 'Policies.klUCB.klUCB'>, 'per_arm_restart': True, 'lazy_detect_change_only_x_steps': 10, 'max_nb_random_events': 4, 'lazy_try_value_s_only_x_steps': 10}, 'archtype': <class 'Policies.GLR_UCB.GaussianGLR_IndexPolicy_WithDeterministicExploration'>} ...
  Creating this policy from a dictionnary 'self.cfg['policies'][16]' = {'params': {'horizon': 20000, 'policy': <class 'Policies.klUCB.klUCB'>, 'per_arm_restart': True, 'lazy_detect_change_only_x_steps': 10, 'max_nb_random_events': 4, 'lazy_try_value_s_only_x_steps': 10}, 'archtype': <class 'Policies.GLR_UCB.GaussianGLR_IndexPolicy_WithDeterministicExploration'>} ...
Error: bound Upsilon_T = 4 should be smaller than horizon T = 20000...
DEBUG: smart_delta_from_T_UpsilonT: horizon = 20000, max_nb_random_events = 4, gives delta = 3.162277660168379...
DEBUG: smart_alpha_from_T_UpsilonT: horizon = 20000, max_nb_random_events = 4, gives alpha = 0.007708496955646852...
- Adding policy #18 = {'params': {'policy': <class 'Policies.klUCB_forGLR.klUCB_forGLR'>, 'per_arm_restart': True, 'alpha0': 0.003854248477823425, 'delta': 0.002041241452319315, 'lazy_detect_change_only_x_steps': 10, 'lazy_try_value_s_only_x_steps': 10}, 'archtype': <class 'Policies.GLR_UCB.BernoulliGLR_IndexPolicy_WithDeterministicExploration'>, 'change_label': 'GLR-klUCB(Local, $\\alpha_0=1$)'} ...
  Creating this policy from a dictionnary 'self.cfg['policies'][17]' = {'params': {'policy': <class 'Policies.klUCB_forGLR.klUCB_forGLR'>, 'per_arm_restart': True, 'alpha0': 0.003854248477823425, 'delta': 0.002041241452319315, 'lazy_detect_change_only_x_steps': 10, 'lazy_try_value_s_only_x_steps': 10}, 'archtype': <class 'Policies.GLR_UCB.BernoulliGLR_IndexPolicy_WithDeterministicExploration'>, 'change_label': 'GLR-klUCB(Local, $\\alpha_0=1$)'} ...
- Adding policy #19 = {'params': {'policy': <class 'Policies.klUCB_forGLR.klUCB_forGLR'>, 'per_arm_restart': False, 'alpha0': 0.00222525139619506, 'delta': 0.0035355339059327377, 'lazy_detect_change_only_x_steps': 10, 'lazy_try_value_s_only_x_steps': 10}, 'archtype': <class 'Policies.GLR_UCB.BernoulliGLR_IndexPolicy_WithDeterministicExploration'>, 'change_label': 'GLR-klUCB(Global, $\\alpha_0=1$)'} ...
  Creating this policy from a dictionnary 'self.cfg['policies'][18]' = {'params': {'policy': <class 'Policies.klUCB_forGLR.klUCB_forGLR'>, 'per_arm_restart': False, 'alpha0': 0.00222525139619506, 'delta': 0.0035355339059327377, 'lazy_detect_change_only_x_steps': 10, 'lazy_try_value_s_only_x_steps': 10}, 'archtype': <class 'Policies.GLR_UCB.BernoulliGLR_IndexPolicy_WithDeterministicExploration'>, 'change_label': 'GLR-klUCB(Global, $\\alpha_0=1$)'} ...



- Evaluating policy #1/19: Oracle-UCB ...

New means vector = [0.4 0.5 0.9], best arm(s) = [2], at time t = 0 ...

New means vector = [0.5 0.4 0.7], best arm(s) = [2], at time t = 4000 ...

New means vector = [0.6 0.3 0.5], best arm(s) = [0], at time t = 8000 ...

New means vector = [0.7 0.2 0.3], best arm(s) = [0], at time t = 12000 ...

New means vector = [0.8 0.1 0.1], best arm(s) = [0], at time t = 16000 ...

Estimated order by the policy Oracle-UCB after 20000 steps: [2 1 0] ...
  ==> Optimal arm identification: 100.00% (relative success)...
  ==> Mean distance from optimal ordering: 22.22% (relative success)...



- Evaluating policy #2/19: Oracle-klUCB ...

New means vector = [0.4 0.5 0.9], best arm(s) = [2], at time t = 0 ...

New means vector = [0.5 0.4 0.7], best arm(s) = [2], at time t = 4000 ...

New means vector = [0.6 0.3 0.5], best arm(s) = [0], at time t = 8000 ...

New means vector = [0.7 0.2 0.3], best arm(s) = [0], at time t = 12000 ...

New means vector = [0.8 0.1 0.1], best arm(s) = [0], at time t = 16000 ...

Estimated order by the policy Oracle-klUCB after 20000 steps: [2 1 0] ...
  ==> Optimal arm identification: 100.00% (relative success)...
  ==> Mean distance from optimal ordering: 22.22% (relative success)...



- Evaluating policy #3/19: Exp3.S($T=20000$, $\Upsilon_T=4$, $\alpha=0.005$, $\gamma=0.638676$) ...

New means vector = [0.4 0.5 0.9], best arm(s) = [2], at time t = 0 ...

New means vector = [0.5 0.4 0.7], best arm(s) = [2], at time t = 4000 ...

New means vector = [0.6 0.3 0.5], best arm(s) = [0], at time t = 8000 ...

New means vector = [0.7 0.2 0.3], best arm(s) = [0], at time t = 12000 ...

New means vector = [0.8 0.1 0.1], best arm(s) = [0], at time t = 16000 ...

Estimated order by the policy Exp3.S($T=20000$, $\Upsilon_T=4$, $\alpha=0.005$, $\gamma=0.638676$) after 20000 steps: [0 1 2] ...
  ==> Optimal arm identification: 12.50% (relative success)...
  ==> Mean distance from optimal ordering: 100.00% (relative success)...



- Evaluating policy #4/19: Exp3.S($T=20000$, $\Upsilon_T=4$, $\alpha=0.005$, $\gamma=0.0638676$) ...

New means vector = [0.4 0.5 0.9], best arm(s) = [2], at time t = 0 ...

New means vector = [0.5 0.4 0.7], best arm(s) = [2], at time t = 4000 ...

New means vector = [0.6 0.3 0.5], best arm(s) = [0], at time t = 8000 ...

New means vector = [0.7 0.2 0.3], best arm(s) = [0], at time t = 12000 ...

New means vector = [0.8 0.1 0.1], best arm(s) = [0], at time t = 16000 ...

Estimated order by the policy Exp3.S($T=20000$, $\Upsilon_T=4$, $\alpha=0.005$, $\gamma=0.0638676$) after 20000 steps: [1 2 0] ...
  ==> Optimal arm identification: 100.00% (relative success)...
  ==> Mean distance from optimal ordering: 38.89% (relative success)...



- Evaluating policy #5/19: Exp3.S($T=20000$, $\Upsilon_T=4$, $\alpha=0.005$, $\gamma=0.000638676$) ...

New means vector = [0.4 0.5 0.9], best arm(s) = [2], at time t = 0 ...

New means vector = [0.5 0.4 0.7], best arm(s) = [2], at time t = 4000 ...

New means vector = [0.6 0.3 0.5], best arm(s) = [0], at time t = 8000 ...

New means vector = [0.7 0.2 0.3], best arm(s) = [0], at time t = 12000 ...

New means vector = [0.8 0.1 0.1], best arm(s) = [0], at time t = 16000 ...

Estimated order by the policy Exp3.S($T=20000$, $\Upsilon_T=4$, $\alpha=0.005$, $\gamma=0.000638676$) after 20000 steps: [1 2 0] ...
  ==> Optimal arm identification: 100.00% (relative success)...
  ==> Mean distance from optimal ordering: 38.89% (relative success)...



- Evaluating policy #6/19: Exp3.S($T=20000$, $\Upsilon_T=4$, $\alpha=0.0025$, $\gamma=0.638676$) ...

New means vector = [0.4 0.5 0.9], best arm(s) = [2], at time t = 0 ...

New means vector = [0.5 0.4 0.7], best arm(s) = [2], at time t = 4000 ...

New means vector = [0.6 0.3 0.5], best arm(s) = [0], at time t = 8000 ...

New means vector = [0.7 0.2 0.3], best arm(s) = [0], at time t = 12000 ...

New means vector = [0.8 0.1 0.1], best arm(s) = [0], at time t = 16000 ...

Estimated order by the policy Exp3.S($T=20000$, $\Upsilon_T=4$, $\alpha=0.0025$, $\gamma=0.638676$) after 20000 steps: [0 1 2] ...
  ==> Optimal arm identification: 12.50% (relative success)...
  ==> Mean distance from optimal ordering: 100.00% (relative success)...



- Evaluating policy #7/19: Exp3.S($T=20000$, $\Upsilon_T=4$, $\alpha=0.0025$, $\gamma=0.0638676$) ...

New means vector = [0.4 0.5 0.9], best arm(s) = [2], at time t = 0 ...

New means vector = [0.5 0.4 0.7], best arm(s) = [2], at time t = 4000 ...

New means vector = [0.6 0.3 0.5], best arm(s) = [0], at time t = 8000 ...

New means vector = [0.7 0.2 0.3], best arm(s) = [0], at time t = 12000 ...

New means vector = [0.8 0.1 0.1], best arm(s) = [0], at time t = 16000 ...

Estimated order by the policy Exp3.S($T=20000$, $\Upsilon_T=4$, $\alpha=0.0025$, $\gamma=0.0638676$) after 20000 steps: [2 1 0] ...
  ==> Optimal arm identification: 100.00% (relative success)...
  ==> Mean distance from optimal ordering: 22.22% (relative success)...



- Evaluating policy #8/19: Exp3.S($T=20000$, $\Upsilon_T=4$, $\alpha=0.0025$, $\gamma=0.000638676$) ...

New means vector = [0.4 0.5 0.9], best arm(s) = [2], at time t = 0 ...

New means vector = [0.5 0.4 0.7], best arm(s) = [2], at time t = 4000 ...

New means vector = [0.6 0.3 0.5], best arm(s) = [0], at time t = 8000 ...

New means vector = [0.7 0.2 0.3], best arm(s) = [0], at time t = 12000 ...

New means vector = [0.8 0.1 0.1], best arm(s) = [0], at time t = 16000 ...

Estimated order by the policy Exp3.S($T=20000$, $\Upsilon_T=4$, $\alpha=0.0025$, $\gamma=0.000638676$) after 20000 steps: [1 2 0] ...
  ==> Optimal arm identification: 100.00% (relative success)...
  ==> Mean distance from optimal ordering: 38.89% (relative success)...



- Evaluating policy #9/19: Exp3.S($T=20000$, $\Upsilon_T=4$, $\alpha=5e-05$, $\gamma=0.638676$) ...

New means vector = [0.4 0.5 0.9], best arm(s) = [2], at time t = 0 ...

New means vector = [0.5 0.4 0.7], best arm(s) = [2], at time t = 4000 ...

New means vector = [0.6 0.3 0.5], best arm(s) = [0], at time t = 8000 ...

New means vector = [0.7 0.2 0.3], best arm(s) = [0], at time t = 12000 ...

New means vector = [0.8 0.1 0.1], best arm(s) = [0], at time t = 16000 ...

Estimated order by the policy Exp3.S($T=20000$, $\Upsilon_T=4$, $\alpha=5e-05$, $\gamma=0.638676$) after 20000 steps: [0 1 2] ...
  ==> Optimal arm identification: 12.50% (relative success)...
  ==> Mean distance from optimal ordering: 100.00% (relative success)...



- Evaluating policy #10/19: Exp3.S($T=20000$, $\Upsilon_T=4$, $\alpha=5e-05$, $\gamma=0.0638676$) ...

New means vector = [0.4 0.5 0.9], best arm(s) = [2], at time t = 0 ...

New means vector = [0.5 0.4 0.7], best arm(s) = [2], at time t = 4000 ...

New means vector = [0.6 0.3 0.5], best arm(s) = [0], at time t = 8000 ...

New means vector = [0.7 0.2 0.3], best arm(s) = [0], at time t = 12000 ...

New means vector = [0.8 0.1 0.1], best arm(s) = [0], at time t = 16000 ...

Estimated order by the policy Exp3.S($T=20000$, $\Upsilon_T=4$, $\alpha=5e-05$, $\gamma=0.0638676$) after 20000 steps: [2 1 0] ...
  ==> Optimal arm identification: 100.00% (relative success)...
  ==> Mean distance from optimal ordering: 22.22% (relative success)...



- Evaluating policy #11/19: Exp3.S($T=20000$, $\Upsilon_T=4$, $\alpha=5e-05$, $\gamma=0.000638676$) ...

New means vector = [0.4 0.5 0.9], best arm(s) = [2], at time t = 0 ...

New means vector = [0.5 0.4 0.7], best arm(s) = [2], at time t = 4000 ...

New means vector = [0.6 0.3 0.5], best arm(s) = [0], at time t = 8000 ...

New means vector = [0.7 0.2 0.3], best arm(s) = [0], at time t = 12000 ...

New means vector = [0.8 0.1 0.1], best arm(s) = [0], at time t = 16000 ...

Estimated order by the policy Exp3.S($T=20000$, $\Upsilon_T=4$, $\alpha=5e-05$, $\gamma=0.000638676$) after 20000 steps: [1 2 0] ...
  ==> Optimal arm identification: 100.00% (relative success)...
  ==> Mean distance from optimal ordering: 38.89% (relative success)...



- Evaluating policy #12/19: Exp3R($T=20000$, $c=2.42$, $\alpha=0.01$) ...

New means vector = [0.4 0.5 0.9], best arm(s) = [2], at time t = 0 ...

New means vector = [0.5 0.4 0.7], best arm(s) = [2], at time t = 4000 ...

New means vector = [0.6 0.3 0.5], best arm(s) = [0], at time t = 8000 ...

New means vector = [0.7 0.2 0.3], best arm(s) = [0], at time t = 12000 ...

New means vector = [0.8 0.1 0.1], best arm(s) = [0], at time t = 16000 ...

Estimated order by the policy Exp3R($T=20000$, $c=2.42$, $\alpha=0.01$) after 20000 steps: [2 1 0] ...
  ==> Optimal arm identification: 100.00% (relative success)...
  ==> Mean distance from optimal ordering: 22.22% (relative success)...



- Evaluating policy #13/19: M-UCB($w=600$, Global) ...

New means vector = [0.4 0.5 0.9], best arm(s) = [2], at time t = 0 ...

New means vector = [0.5 0.4 0.7], best arm(s) = [2], at time t = 4000 ...

New means vector = [0.6 0.3 0.5], best arm(s) = [0], at time t = 8000 ...

New means vector = [0.7 0.2 0.3], best arm(s) = [0], at time t = 12000 ...

New means vector = [0.8 0.1 0.1], best arm(s) = [0], at time t = 16000 ...

Estimated order by the policy M-UCB($w=600$, Global) after 20000 steps: [1 2 0] ...
  ==> Optimal arm identification: 100.00% (relative success)...
  ==> Mean distance from optimal ordering: 38.89% (relative success)...



- Evaluating policy #14/19: M-klUCB($w=600$, Global) ...

New means vector = [0.4 0.5 0.9], best arm(s) = [2], at time t = 0 ...

New means vector = [0.5 0.4 0.7], best arm(s) = [2], at time t = 4000 ...

New means vector = [0.6 0.3 0.5], best arm(s) = [0], at time t = 8000 ...

New means vector = [0.7 0.2 0.3], best arm(s) = [0], at time t = 12000 ...

New means vector = [0.8 0.1 0.1], best arm(s) = [0], at time t = 16000 ...

Estimated order by the policy M-klUCB($w=600$, Global) after 20000 steps: [1 2 0] ...
  ==> Optimal arm identification: 100.00% (relative success)...
  ==> Mean distance from optimal ordering: 38.89% (relative success)...



- Evaluating policy #15/19: CUSUM-UCB(lazy detect 20) ...

New means vector = [0.4 0.5 0.9], best arm(s) = [2], at time t = 0 ...

New means vector = [0.5 0.4 0.7], best arm(s) = [2], at time t = 4000 ...

New means vector = [0.6 0.3 0.5], best arm(s) = [0], at time t = 8000 ...

New means vector = [0.7 0.2 0.3], best arm(s) = [0], at time t = 12000 ...

New means vector = [0.8 0.1 0.1], best arm(s) = [0], at time t = 16000 ...

Estimated order by the policy CUSUM-UCB(lazy detect 20) after 20000 steps: [1 2 0] ...
  ==> Optimal arm identification: 100.00% (relative success)...
  ==> Mean distance from optimal ordering: 38.89% (relative success)...



- Evaluating policy #16/19: CUSUM-klUCB(lazy detect 20) ...

New means vector = [0.4 0.5 0.9], best arm(s) = [2], at time t = 0 ...

New means vector = [0.5 0.4 0.7], best arm(s) = [2], at time t = 4000 ...

New means vector = [0.6 0.3 0.5], best arm(s) = [0], at time t = 8000 ...

New means vector = [0.7 0.2 0.3], best arm(s) = [0], at time t = 12000 ...

New means vector = [0.8 0.1 0.1], best arm(s) = [0], at time t = 16000 ...

Estimated order by the policy CUSUM-klUCB(lazy detect 20) after 20000 steps: [1 2 0] ...
  ==> Optimal arm identification: 100.00% (relative success)...
  ==> Mean distance from optimal ordering: 38.89% (relative success)...



- Evaluating policy #17/19: Gaussian-GLR-klUCB(Local) ...

New means vector = [0.4 0.5 0.9], best arm(s) = [2], at time t = 0 ...

New means vector = [0.5 0.4 0.7], best arm(s) = [2], at time t = 4000 ...

New means vector = [0.6 0.3 0.5], best arm(s) = [0], at time t = 8000 ...

New means vector = [0.7 0.2 0.3], best arm(s) = [0], at time t = 12000 ...

New means vector = [0.8 0.1 0.1], best arm(s) = [0], at time t = 16000 ...

Estimated order by the policy Gaussian-GLR-klUCB(Local) after 20000 steps: [1 2 0] ...
  ==> Optimal arm identification: 100.00% (relative success)...
  ==> Mean distance from optimal ordering: 38.89% (relative success)...



- Evaluating policy #18/19: GLR-klUCB_forGLR(Local) ...

New means vector = [0.4 0.5 0.9], best arm(s) = [2], at time t = 0 ...

New means vector = [0.5 0.4 0.7], best arm(s) = [2], at time t = 4000 ...

New means vector = [0.6 0.3 0.5], best arm(s) = [0], at time t = 8000 ...

New means vector = [0.7 0.2 0.3], best arm(s) = [0], at time t = 12000 ...

New means vector = [0.8 0.1 0.1], best arm(s) = [0], at time t = 16000 ...

Estimated order by the policy GLR-klUCB_forGLR(Local) after 20000 steps: [1 2 0] ...
  ==> Optimal arm identification: 100.00% (relative success)...
  ==> Mean distance from optimal ordering: 38.89% (relative success)...



- Evaluating policy #19/19: GLR-klUCB_forGLR(Global) ...

New means vector = [0.4 0.5 0.9], best arm(s) = [2], at time t = 0 ...

New means vector = [0.5 0.4 0.7], best arm(s) = [2], at time t = 4000 ...

New means vector = [0.6 0.3 0.5], best arm(s) = [0], at time t = 8000 ...

New means vector = [0.7 0.2 0.3], best arm(s) = [0], at time t = 12000 ...

New means vector = [0.8 0.1 0.1], best arm(s) = [0], at time t = 16000 ...

Estimated order by the policy GLR-klUCB_forGLR(Global) after 20000 steps: [1 2 0] ...
  ==> Optimal arm identification: 100.00% (relative success)...
  ==> Mean distance from optimal ordering: 38.89% (relative success)...

Giving the vector of final regrets ...

  For policy #0 called 'Oracle-UCB' ...
  Last regrets (for all repetitions) have:
Min of    last regrets R_T = -29
Mean of   last regrets R_T = 219
Median of last regrets R_T = 214
Max of    last regrets R_T = 507
Standard deviation     R_T = 71.4
219 \pm 71

  For policy #1 called 'Oracle-klUCB' ...
  Last regrets (for all repetitions) have:
Min of    last regrets R_T = -155
Mean of   last regrets R_T = 68.2
Median of last regrets R_T = 67
Max of    last regrets R_T = 379
Standard deviation     R_T = 63.4
68 \pm 63

  For policy #2 called 'Exp3.S($T=20000$, $\Upsilon_T=4$, $\alpha=0.005$, $\gamma=0.638676$)' ...
  Last regrets (for all repetitions) have:
Min of    last regrets R_T = 4.85e+03
Mean of   last regrets R_T = 5.11e+03
Median of last regrets R_T = 5.11e+03
Max of    last regrets R_T = 5.33e+03
Standard deviation     R_T = 67.9
5113 \pm 68

  For policy #3 called 'Exp3.S($T=20000$, $\Upsilon_T=4$, $\alpha=0.005$, $\gamma=0.0638676$)' ...
  Last regrets (for all repetitions) have:
Min of    last regrets R_T = 512
Mean of   last regrets R_T = 749
Median of last regrets R_T = 749
Max of    last regrets R_T = 1.07e+03
Standard deviation     R_T = 88.2
749 \pm 88

  For policy #4 called 'Exp3.S($T=20000$, $\Upsilon_T=4$, $\alpha=0.005$, $\gamma=0.000638676$)' ...
  Last regrets (for all repetitions) have:
Min of    last regrets R_T = 1.92e+03
Mean of   last regrets R_T = 5.01e+03
Median of last regrets R_T = 5.08e+03
Max of    last regrets R_T = 8.43e+03
Standard deviation     R_T = 1.26e+03
5013 \pm 1257

  For policy #5 called 'Exp3.S($T=20000$, $\Upsilon_T=4$, $\alpha=0.0025$, $\gamma=0.638676$)' ...
  Last regrets (for all repetitions) have:
Min of    last regrets R_T = 4.89e+03
Mean of   last regrets R_T = 5.09e+03
Median of last regrets R_T = 5.09e+03
Max of    last regrets R_T = 5.32e+03
Standard deviation     R_T = 67.1
5087 \pm 67

  For policy #6 called 'Exp3.S($T=20000$, $\Upsilon_T=4$, $\alpha=0.0025$, $\gamma=0.0638676$)' ...
  Last regrets (for all repetitions) have:
Min of    last regrets R_T = 459
Mean of   last regrets R_T = 673
Median of last regrets R_T = 665
Max of    last regrets R_T = 1.02e+03
Standard deviation     R_T = 93.4
673 \pm 93

  For policy #7 called 'Exp3.S($T=20000$, $\Upsilon_T=4$, $\alpha=0.0025$, $\gamma=0.000638676$)' ...
  Last regrets (for all repetitions) have:
Min of    last regrets R_T = 2.39e+03
Mean of   last regrets R_T = 4.92e+03
Median of last regrets R_T = 4.91e+03
Max of    last regrets R_T = 6.98e+03
Standard deviation     R_T = 691
4916 \pm 691

  For policy #8 called 'Exp3.S($T=20000$, $\Upsilon_T=4$, $\alpha=5e-05$, $\gamma=0.638676$)' ...
  Last regrets (for all repetitions) have:
Min of    last regrets R_T = 4.83e+03
Mean of   last regrets R_T = 5.07e+03
Median of last regrets R_T = 5.07e+03
Max of    last regrets R_T = 5.28e+03
Standard deviation     R_T = 68.6
5072 \pm 69

  For policy #9 called 'Exp3.S($T=20000$, $\Upsilon_T=4$, $\alpha=5e-05$, $\gamma=0.0638676$)' ...
  Last regrets (for all repetitions) have:
Min of    last regrets R_T = 370
Mean of   last regrets R_T = 680
Median of last regrets R_T = 655
Max of    last regrets R_T = 1.46e+03
Standard deviation     R_T = 143
680 \pm 143

  For policy #10 called 'Exp3.S($T=20000$, $\Upsilon_T=4$, $\alpha=5e-05$, $\gamma=0.000638676$)' ...
  Last regrets (for all repetitions) have:
Min of    last regrets R_T = 4.56e+03
Mean of   last regrets R_T = 4.87e+03
Median of last regrets R_T = 4.88e+03
Max of    last regrets R_T = 5.17e+03
Standard deviation     R_T = 95
4873 \pm 95

  For policy #11 called 'Exp3R($T=20000$, $c=2.42$, $\alpha=0.01$)' ...
  Last regrets (for all repetitions) have:
Min of    last regrets R_T = 973
Mean of   last regrets R_T = 1.48e+03
Median of last regrets R_T = 1.47e+03
Max of    last regrets R_T = 2.18e+03
Standard deviation     R_T = 195
1484 \pm 195

  For policy #12 called 'M-UCB($w=600$, Global)' ...
  Last regrets (for all repetitions) have:
Min of    last regrets R_T = 676
Mean of   last regrets R_T = 1.49e+03
Median of last regrets R_T = 1.54e+03
Max of    last regrets R_T = 2.33e+03
Standard deviation     R_T = 292
1494 \pm 292

  For policy #13 called 'M-klUCB($w=600$, Global)' ...
  Last regrets (for all repetitions) have:
Min of    last regrets R_T = 636
Mean of   last regrets R_T = 2.05e+03
Median of last regrets R_T = 2.2e+03
Max of    last regrets R_T = 3.06e+03
Standard deviation     R_T = 533
2049 \pm 533

  For policy #14 called 'CUSUM-UCB(lazy detect 20)' ...
  Last regrets (for all repetitions) have:
Min of    last regrets R_T = 195
Mean of   last regrets R_T = 383
Median of last regrets R_T = 378
Max of    last regrets R_T = 651
Standard deviation     R_T = 71.4
383 \pm 71

  For policy #15 called 'CUSUM-klUCB(lazy detect 20)' ...
  Last regrets (for all repetitions) have:
Min of    last regrets R_T = 102
Mean of   last regrets R_T = 317
Median of last regrets R_T = 309
Max of    last regrets R_T = 718
Standard deviation     R_T = 85.9
317 \pm 86

  For policy #16 called 'Gaussian-GLR-klUCB(Local)' ...
  Last regrets (for all repetitions) have:
Min of    last regrets R_T = -95
Mean of   last regrets R_T = 115
Median of last regrets R_T = 116
Max of    last regrets R_T = 345
Standard deviation     R_T = 61.6
115 \pm 62

  For policy #17 called 'GLR-klUCB(Local, $\alpha_0=1$)' ...
  Last regrets (for all repetitions) have:
Min of    last regrets R_T = -31
Mean of   last regrets R_T = 186
Median of last regrets R_T = 188
Max of    last regrets R_T = 386
Standard deviation     R_T = 66.2
186 \pm 66

  For policy #18 called 'GLR-klUCB(Global, $\alpha_0=1$)' ...
  Last regrets (for all repetitions) have:
Min of    last regrets R_T = 32
Mean of   last regrets R_T = 257
Median of last regrets R_T = 257
Max of    last regrets R_T = 465
Standard deviation     R_T = 64.4
257 \pm 64

Giving the final ranks ...

Final ranking for this environment #0 :
- Policy 'Oracle-klUCB'	was ranked	1 / 19 for this simulation (last regret = 66.816).
- Policy 'Gaussian-GLR-klUCB(Local)'	was ranked	2 / 19 for this simulation (last regret = 109.83).
- Policy 'GLR-klUCB(Local, $\alpha_0=1$)'	was ranked	3 / 19 for this simulation (last regret = 186.25).
- Policy 'Oracle-UCB'	was ranked	4 / 19 for this simulation (last regret = 218.68).
- Policy 'GLR-klUCB(Global, $\alpha_0=1$)'	was ranked	5 / 19 for this simulation (last regret = 253.88).
- Policy 'CUSUM-klUCB(lazy detect 20)'	was ranked	6 / 19 for this simulation (last regret = 316.75).
- Policy 'CUSUM-UCB(lazy detect 20)'	was ranked	7 / 19 for this simulation (last regret = 380.97).
- Policy 'Exp3.S($T=20000$, $\Upsilon_T=4$, $\alpha=0.0025$, $\gamma=0.0638676$)'	was ranked	8 / 19 for this simulation (last regret = 666.64).
- Policy 'Exp3.S($T=20000$, $\Upsilon_T=4$, $\alpha=5e-05$, $\gamma=0.0638676$)'	was ranked	9 / 19 for this simulation (last regret = 673.68).
- Policy 'Exp3.S($T=20000$, $\Upsilon_T=4$, $\alpha=0.005$, $\gamma=0.0638676$)'	was ranked	10 / 19 for this simulation (last regret = 741.47).
- Policy 'M-UCB($w=600$, Global)'	was ranked	11 / 19 for this simulation (last regret = 1484).
- Policy 'Exp3R($T=20000$, $c=2.42$, $\alpha=0.01$)'	was ranked	12 / 19 for this simulation (last regret = 1484.4).
- Policy 'M-klUCB($w=600$, Global)'	was ranked	13 / 19 for this simulation (last regret = 2040).
- Policy 'Exp3.S($T=20000$, $\Upsilon_T=4$, $\alpha=5e-05$, $\gamma=0.000638676$)'	was ranked	14 / 19 for this simulation (last regret = 4803.8).
- Policy 'Exp3.S($T=20000$, $\Upsilon_T=4$, $\alpha=0.0025$, $\gamma=0.000638676$)'	was ranked	15 / 19 for this simulation (last regret = 4847.1).
- Policy 'Exp3.S($T=20000$, $\Upsilon_T=4$, $\alpha=0.005$, $\gamma=0.000638676$)'	was ranked	16 / 19 for this simulation (last regret = 4938.2).
- Policy 'Exp3.S($T=20000$, $\Upsilon_T=4$, $\alpha=5e-05$, $\gamma=0.638676$)'	was ranked	17 / 19 for this simulation (last regret = 4975.5).
- Policy 'Exp3.S($T=20000$, $\Upsilon_T=4$, $\alpha=0.0025$, $\gamma=0.638676$)'	was ranked	18 / 19 for this simulation (last regret = 5000.5).
- Policy 'Exp3.S($T=20000$, $\Upsilon_T=4$, $\alpha=0.005$, $\gamma=0.638676$)'	was ranked	19 / 19 for this simulation (last regret = 5019.4).

Giving the mean and std running times ...

For policy #0 called 'Oracle-UCB' ...
    1.37 s ± 112 ms per loop (mean ± std. dev. of 1000 run)

For policy #1 called 'Oracle-klUCB' ...
    2.65 s ± 194 ms per loop (mean ± std. dev. of 1000 run)

For policy #12 called 'M-UCB($w=600$, Global)' ...
    3 s ± 245 ms per loop (mean ± std. dev. of 1000 run)

For policy #13 called 'M-klUCB($w=600$, Global)' ...
    4.38 s ± 305 ms per loop (mean ± std. dev. of 1000 run)

For policy #3 called 'Exp3.S($T=20000$, $\Upsilon_T=4$, $\alpha=0.005$, $\gamma=0.0638676$)' ...
    5.93 s ± 271 ms per loop (mean ± std. dev. of 1000 run)

For policy #4 called 'Exp3.S($T=20000$, $\Upsilon_T=4$, $\alpha=0.005$, $\gamma=0.000638676$)' ...
    5.97 s ± 283 ms per loop (mean ± std. dev. of 1000 run)

For policy #9 called 'Exp3.S($T=20000$, $\Upsilon_T=4$, $\alpha=5e-05$, $\gamma=0.0638676$)' ...
    6.02 s ± 277 ms per loop (mean ± std. dev. of 1000 run)

For policy #6 called 'Exp3.S($T=20000$, $\Upsilon_T=4$, $\alpha=0.0025$, $\gamma=0.0638676$)' ...
    6.19 s ± 463 ms per loop (mean ± std. dev. of 1000 run)

For policy #10 called 'Exp3.S($T=20000$, $\Upsilon_T=4$, $\alpha=5e-05$, $\gamma=0.000638676$)' ...
    6.27 s ± 493 ms per loop (mean ± std. dev. of 1000 run)

For policy #7 called 'Exp3.S($T=20000$, $\Upsilon_T=4$, $\alpha=0.0025$, $\gamma=0.000638676$)' ...
    6.3 s ± 542 ms per loop (mean ± std. dev. of 1000 run)

For policy #2 called 'Exp3.S($T=20000$, $\Upsilon_T=4$, $\alpha=0.005$, $\gamma=0.638676$)' ...
    6.66 s ± 390 ms per loop (mean ± std. dev. of 1000 run)

For policy #5 called 'Exp3.S($T=20000$, $\Upsilon_T=4$, $\alpha=0.0025$, $\gamma=0.638676$)' ...
    6.78 s ± 439 ms per loop (mean ± std. dev. of 1000 run)

For policy #14 called 'CUSUM-UCB(lazy detect 20)' ...
    7 s ± 901 ms per loop (mean ± std. dev. of 1000 run)

For policy #8 called 'Exp3.S($T=20000$, $\Upsilon_T=4$, $\alpha=5e-05$, $\gamma=0.638676$)' ...
    7.02 s ± 385 ms per loop (mean ± std. dev. of 1000 run)

For policy #11 called 'Exp3R($T=20000$, $c=2.42$, $\alpha=0.01$)' ...
    7.6 s ± 440 ms per loop (mean ± std. dev. of 1000 run)

For policy #15 called 'CUSUM-klUCB(lazy detect 20)' ...
    8.69 s ± 1.06 s per loop (mean ± std. dev. of 1000 run)

For policy #16 called 'Gaussian-GLR-klUCB(Local)' ...
    13.7 s ± 952 ms per loop (mean ± std. dev. of 1000 run)

For policy #18 called 'GLR-klUCB(Global, $\alpha_0=1$)' ...
    15.1 s ± 950 ms per loop (mean ± std. dev. of 1000 run)

For policy #17 called 'GLR-klUCB(Local, $\alpha_0=1$)' ...
    16 s ± 1.08 s per loop (mean ± std. dev. of 1000 run)

Giving the mean and std memory consumption ...

For policy #2 called 'Exp3.S($T=20000$, $\Upsilon_T=4$, $\alpha=0.005$, $\gamma=0.638676$)' ...
    978.7 B ± 41.1 B (mean ± std. dev. of 1000 runs)

For policy #8 called 'Exp3.S($T=20000$, $\Upsilon_T=4$, $\alpha=5e-05$, $\gamma=0.638676$)' ...
    981 B ± 0 B (mean ± std. dev. of 1000 runs)

For policy #5 called 'Exp3.S($T=20000$, $\Upsilon_T=4$, $\alpha=0.0025$, $\gamma=0.638676$)' ...
    981.2 B ± 26.2 B (mean ± std. dev. of 1000 runs)

For policy #9 called 'Exp3.S($T=20000$, $\Upsilon_T=4$, $\alpha=5e-05$, $\gamma=0.0638676$)' ...
    982 B ± 0 B (mean ± std. dev. of 1000 runs)

For policy #3 called 'Exp3.S($T=20000$, $\Upsilon_T=4$, $\alpha=0.005$, $\gamma=0.0638676$)' ...
    982 B ± 0 B (mean ± std. dev. of 1000 runs)

For policy #6 called 'Exp3.S($T=20000$, $\Upsilon_T=4$, $\alpha=0.0025$, $\gamma=0.0638676$)' ...
    983 B ± 0 B (mean ± std. dev. of 1000 runs)

For policy #4 called 'Exp3.S($T=20000$, $\Upsilon_T=4$, $\alpha=0.005$, $\gamma=0.000638676$)' ...
    983.4 B ± 17.7 B (mean ± std. dev. of 1000 runs)

For policy #10 called 'Exp3.S($T=20000$, $\Upsilon_T=4$, $\alpha=5e-05$, $\gamma=0.000638676$)' ...
    983.5 B ± 15.2 B (mean ± std. dev. of 1000 runs)

For policy #7 called 'Exp3.S($T=20000$, $\Upsilon_T=4$, $\alpha=0.0025$, $\gamma=0.000638676$)' ...
    985 B ± 0 B (mean ± std. dev. of 1000 runs)

For policy #12 called 'M-UCB($w=600$, Global)' ...
    15.9 KiB ± 2.9 KiB (mean ± std. dev. of 1000 runs)

For policy #13 called 'M-klUCB($w=600$, Global)' ...
    16.1 KiB ± 2.9 KiB (mean ± std. dev. of 1000 runs)

For policy #18 called 'GLR-klUCB(Global, $\alpha_0=1$)' ...
    29.2 KiB ± 4.3 KiB (mean ± std. dev. of 1000 runs)

For policy #16 called 'Gaussian-GLR-klUCB(Local)' ...
    34.3 KiB ± 3.2 KiB (mean ± std. dev. of 1000 runs)

For policy #0 called 'Oracle-UCB' ...
    34.5 KiB ± 19.5 KiB (mean ± std. dev. of 1000 runs)

For policy #17 called 'GLR-klUCB(Local, $\alpha_0=1$)' ...
    34.8 KiB ± 4.4 KiB (mean ± std. dev. of 1000 runs)

For policy #15 called 'CUSUM-klUCB(lazy detect 20)' ...
    35.7 KiB ± 12.8 KiB (mean ± std. dev. of 1000 runs)

For policy #14 called 'CUSUM-UCB(lazy detect 20)' ...
    36.7 KiB ± 12.4 KiB (mean ± std. dev. of 1000 runs)

For policy #1 called 'Oracle-klUCB' ...
    39.6 KiB ± 4.3 KiB (mean ± std. dev. of 1000 runs)

For policy #11 called 'Exp3R($T=20000$, $c=2.42$, $\alpha=0.01$)' ...
    142.9 KiB ± 70.1 KiB (mean ± std. dev. of 1000 runs)

Giving the mean and std number of CP detections ...

For policy #9 called 'Exp3.S($T=20000$, $\Upsilon_T=4$, $\alpha=5e-05$, $\gamma=0.0638676$)' ...
    0 ± 0 (mean ± std. dev. of 1000 runs)

For policy #2 called 'Exp3.S($T=20000$, $\Upsilon_T=4$, $\alpha=0.005$, $\gamma=0.638676$)' ...
    0 ± 0 (mean ± std. dev. of 1000 runs)

For policy #3 called 'Exp3.S($T=20000$, $\Upsilon_T=4$, $\alpha=0.005$, $\gamma=0.0638676$)' ...
    0 ± 0 (mean ± std. dev. of 1000 runs)

For policy #4 called 'Exp3.S($T=20000$, $\Upsilon_T=4$, $\alpha=0.005$, $\gamma=0.000638676$)' ...
    0 ± 0 (mean ± std. dev. of 1000 runs)

For policy #5 called 'Exp3.S($T=20000$, $\Upsilon_T=4$, $\alpha=0.0025$, $\gamma=0.638676$)' ...
    0 ± 0 (mean ± std. dev. of 1000 runs)

For policy #6 called 'Exp3.S($T=20000$, $\Upsilon_T=4$, $\alpha=0.0025$, $\gamma=0.0638676$)' ...
    0 ± 0 (mean ± std. dev. of 1000 runs)

For policy #7 called 'Exp3.S($T=20000$, $\Upsilon_T=4$, $\alpha=0.0025$, $\gamma=0.000638676$)' ...
    0 ± 0 (mean ± std. dev. of 1000 runs)

For policy #8 called 'Exp3.S($T=20000$, $\Upsilon_T=4$, $\alpha=5e-05$, $\gamma=0.638676$)' ...
    0 ± 0 (mean ± std. dev. of 1000 runs)

For policy #10 called 'Exp3.S($T=20000$, $\Upsilon_T=4$, $\alpha=5e-05$, $\gamma=0.000638676$)' ...
    0 ± 0 (mean ± std. dev. of 1000 runs)

For policy #11 called 'Exp3R($T=20000$, $c=2.42$, $\alpha=0.01$)' ...
    0 ± 0 (mean ± std. dev. of 1000 runs)

For policy #12 called 'M-UCB($w=600$, Global)' ...
    0.282 ± 0.582 (mean ± std. dev. of 1000 runs)

For policy #13 called 'M-klUCB($w=600$, Global)' ...
    0.314 ± 0.556 (mean ± std. dev. of 1000 runs)

For policy #17 called 'GLR-klUCB(Local, $\alpha_0=1$)' ...
    3.99 ± 0.0998 (mean ± std. dev. of 1000 runs)

For policy #18 called 'GLR-klUCB(Global, $\alpha_0=1$)' ...
    4 ± 0.0947 (mean ± std. dev. of 1000 runs)

For policy #1 called 'Oracle-klUCB' ...
    4 ± 0 (mean ± std. dev. of 1000 runs)

For policy #0 called 'Oracle-UCB' ...
    4 ± 0 (mean ± std. dev. of 1000 runs)

For policy #16 called 'Gaussian-GLR-klUCB(Local)' ...
    4.26 ± 0.481 (mean ± std. dev. of 1000 runs)

For policy #15 called 'CUSUM-klUCB(lazy detect 20)' ...
    8.92 ± 1.77 (mean ± std. dev. of 1000 runs)

For policy #14 called 'CUSUM-UCB(lazy detect 20)' ...
    9.26 ± 1.9 (mean ± std. dev. of 1000 runs)
plots/SP__K3_T20000_N1000__19_algos is already a directory here...
Copying /home/lilian_besson/SMPyBandits.git/SMPyBandits/configuration_nonstationary.py to plots/SP__K3_T20000_N1000__19_algos/configuration_nonstationary__env1-1_4978916725373351070.py...
Saving full configuration dictionnary to plots/SP__K3_T20000_N1000__19_algos/configuration_nonstationary__env1-1_4978916725373351070_minimalist.py...
Error: when saving the Evaluator object to a HDF5 file, the attribute named change_labels (value {17: 'GLR-klUCB(Local, $\\alpha_0=1$)', 18: 'GLR-klUCB(Global, $\\alpha_0=1$)'} of type <class 'dict'>) couldn't be saved. Skipping...
Error: when saving the Evaluator object to a HDF5 file, the attribute named append_labels (value {} of type <class 'dict'>) couldn't be saved. Skipping...
Error: when saving the Evaluator object to a HDF5 file, the attribute named _sparsity (value None of type <class 'NoneType'>) couldn't be saved. Skipping...
 - Plotting the history of means, and saving the plot to plots/SP__K3_T20000_N1000__19_algos/main_HistoryOfMeans____env1-1_4978916725373351070 ...
Saving figure with format png, to file 'plots/SP__K3_T20000_N1000__19_algos/main_HistoryOfMeans____env1-1_4978916725373351070.png'...
       Saved! 'plots/SP__K3_T20000_N1000__19_algos/main_HistoryOfMeans____env1-1_4978916725373351070.png' created of size '78603b', at 'Tue Mar 26 05:26:09 2019' ...
Saving figure with format pdf, to file 'plots/SP__K3_T20000_N1000__19_algos/main_HistoryOfMeans____env1-1_4978916725373351070.pdf'...
       Saved! 'plots/SP__K3_T20000_N1000__19_algos/main_HistoryOfMeans____env1-1_4978916725373351070.pdf' created of size '25398b', at 'Tue Mar 26 05:26:09 2019' ...
Saving figure with format png, to file 'plots/SP__K3_T20000_N1000__19_algos/main_BoxPlotRegret____env1-1_4978916725373351070.png'...
       Saved! 'plots/SP__K3_T20000_N1000__19_algos/main_BoxPlotRegret____env1-1_4978916725373351070.png' created of size '216140b', at 'Tue Mar 26 05:26:10 2019' ...
Saving figure with format pdf, to file 'plots/SP__K3_T20000_N1000__19_algos/main_BoxPlotRegret____env1-1_4978916725373351070.pdf'...
       Saved! 'plots/SP__K3_T20000_N1000__19_algos/main_BoxPlotRegret____env1-1_4978916725373351070.pdf' created of size '47799b', at 'Tue Mar 26 05:26:10 2019' ...
 - Plotting the running times, and saving the plot to plots/SP__K3_T20000_N1000__19_algos/main_RunningTimes____env1-1_4978916725373351070 ...
Saving figure with format png, to file 'plots/SP__K3_T20000_N1000__19_algos/main_RunningTimes____env1-1_4978916725373351070.png'...
       Saved! 'plots/SP__K3_T20000_N1000__19_algos/main_RunningTimes____env1-1_4978916725373351070.png' created of size '220071b', at 'Tue Mar 26 05:26:11 2019' ...
Saving figure with format pdf, to file 'plots/SP__K3_T20000_N1000__19_algos/main_RunningTimes____env1-1_4978916725373351070.pdf'...
       Saved! 'plots/SP__K3_T20000_N1000__19_algos/main_RunningTimes____env1-1_4978916725373351070.pdf' created of size '46249b', at 'Tue Mar 26 05:26:11 2019' ...
 - Plotting the memory consumption, and saving the plot to plots/SP__K3_T20000_N1000__19_algos/main_MemoryConsumption____env1-1_4978916725373351070 ...
Saving figure with format png, to file 'plots/SP__K3_T20000_N1000__19_algos/main_MemoryConsumption____env1-1_4978916725373351070.png'...
       Saved! 'plots/SP__K3_T20000_N1000__19_algos/main_MemoryConsumption____env1-1_4978916725373351070.png' created of size '206774b', at 'Tue Mar 26 05:26:12 2019' ...
Saving figure with format pdf, to file 'plots/SP__K3_T20000_N1000__19_algos/main_MemoryConsumption____env1-1_4978916725373351070.pdf'...
       Saved! 'plots/SP__K3_T20000_N1000__19_algos/main_MemoryConsumption____env1-1_4978916725373351070.pdf' created of size '46296b', at 'Tue Mar 26 05:26:12 2019' ...
 - Plotting the memory consumption, and saving the plot to plots/SP__K3_T20000_N1000__19_algos/main_NumberOfCPDetections____env1-1_4978916725373351070 ...
Saving figure with format png, to file 'plots/SP__K3_T20000_N1000__19_algos/main_NumberOfCPDetections____env1-1_4978916725373351070.png'...
       Saved! 'plots/SP__K3_T20000_N1000__19_algos/main_NumberOfCPDetections____env1-1_4978916725373351070.png' created of size '198004b', at 'Tue Mar 26 05:26:13 2019' ...
Saving figure with format pdf, to file 'plots/SP__K3_T20000_N1000__19_algos/main_NumberOfCPDetections____env1-1_4978916725373351070.pdf'...
       Saved! 'plots/SP__K3_T20000_N1000__19_algos/main_NumberOfCPDetections____env1-1_4978916725373351070.pdf' created of size '36526b', at 'Tue Mar 26 05:26:13 2019' ...
 - Plotting the mean rewards, and saving the plot to plots/SP__K3_T20000_N1000__19_algos/main_MeanRewards____env1-1_4978916725373351070 ...

This MAB problem has: 
 - a [Lai & Robbins] complexity constant C(mu) = 1.45 for 1-player problem... 
 - a Optimal Arm Identification factor H_OI(mu) = 36.67% ...
Warning: forcing to use putatright = True because there is 20 items in the legend.
Saving figure with format png, to file 'plots/SP__K3_T20000_N1000__19_algos/main_MeanRewards____env1-1_4978916725373351070.png'...
       Saved! 'plots/SP__K3_T20000_N1000__19_algos/main_MeanRewards____env1-1_4978916725373351070.png' created of size '268843b', at 'Tue Mar 26 05:26:14 2019' ...
Saving figure with format pdf, to file 'plots/SP__K3_T20000_N1000__19_algos/main_MeanRewards____env1-1_4978916725373351070.pdf'...
       Saved! 'plots/SP__K3_T20000_N1000__19_algos/main_MeanRewards____env1-1_4978916725373351070.pdf' created of size '64767b', at 'Tue Mar 26 05:26:14 2019' ...
 - Plotting the cumulative rewards, and saving the plot to plots/SP__K3_T20000_N1000__19_algos/main_MeanRewards____env1-1_4978916725373351070 ...

This MAB problem has: 
 - a [Lai & Robbins] complexity constant C(mu) = 1.45 for 1-player problem... 
 - a Optimal Arm Identification factor H_OI(mu) = 36.67% ...
Warning: forcing to use putatright = True because there is 19 items in the legend.
Saving figure with format png, to file 'plots/SP__K3_T20000_N1000__19_algos/main____env1-1_4978916725373351070.png'...
       Saved! 'plots/SP__K3_T20000_N1000__19_algos/main____env1-1_4978916725373351070.png' created of size '235948b', at 'Tue Mar 26 05:26:18 2019' ...
Saving figure with format pdf, to file 'plots/SP__K3_T20000_N1000__19_algos/main____env1-1_4978916725373351070.pdf'...
       Saved! 'plots/SP__K3_T20000_N1000__19_algos/main____env1-1_4978916725373351070.pdf' created of size '57309b', at 'Tue Mar 26 05:26:18 2019' ...

This MAB problem has: 
 - a [Lai & Robbins] complexity constant C(mu) = 1.45 for 1-player problem... 
 - a Optimal Arm Identification factor H_OI(mu) = 36.67% ...
Warning: forcing to use putatright = True because there is 19 items in the legend.
Saving figure with format png, to file 'plots/SP__K3_T20000_N1000__19_algos/main_LessAccurate____env1-1_4978916725373351070.png'...
       Saved! 'plots/SP__K3_T20000_N1000__19_algos/main_LessAccurate____env1-1_4978916725373351070.png' created of size '231985b', at 'Tue Mar 26 05:26:19 2019' ...
Saving figure with format pdf, to file 'plots/SP__K3_T20000_N1000__19_algos/main_LessAccurate____env1-1_4978916725373351070.pdf'...
       Saved! 'plots/SP__K3_T20000_N1000__19_algos/main_LessAccurate____env1-1_4978916725373351070.pdf' created of size '57712b', at 'Tue Mar 26 05:26:19 2019' ...
 - Plotting the probability of picking the best arm, and saving the plot to plots/SP__K3_T20000_N1000__19_algos/main_BestArmPulls____env1-1_4978916725373351070 ...
Warning: forcing to use putatright = True because there is 19 items in the legend.
Saving figure with format png, to file 'plots/SP__K3_T20000_N1000__19_algos/main_BestArmPulls____env1-1_4978916725373351070.png'...
       Saved! 'plots/SP__K3_T20000_N1000__19_algos/main_BestArmPulls____env1-1_4978916725373351070.png' created of size '265742b', at 'Tue Mar 26 05:26:20 2019' ...
Saving figure with format pdf, to file 'plots/SP__K3_T20000_N1000__19_algos/main_BestArmPulls____env1-1_4978916725373351070.pdf'...
       Saved! 'plots/SP__K3_T20000_N1000__19_algos/main_BestArmPulls____env1-1_4978916725373351070.pdf' created of size '54424b', at 'Tue Mar 26 05:26:20 2019' ...
Warning: forcing to use putatright = True because there is 19 items in the legend.
Saving figure with format png, to file 'plots/SP__K3_T20000_N1000__19_algos/main_semilogy____env1-1_4978916725373351070.png'...
       Saved! 'plots/SP__K3_T20000_N1000__19_algos/main_semilogy____env1-1_4978916725373351070.png' created of size '252494b', at 'Tue Mar 26 05:26:24 2019' ...
Saving figure with format pdf, to file 'plots/SP__K3_T20000_N1000__19_algos/main_semilogy____env1-1_4978916725373351070.pdf'...
       Saved! 'plots/SP__K3_T20000_N1000__19_algos/main_semilogy____env1-1_4978916725373351070.pdf' created of size '63051b', at 'Tue Mar 26 05:26:24 2019' ...
Warning: forcing to use putatright = True because there is 19 items in the legend.
Saving figure with format png, to file 'plots/SP__K3_T20000_N1000__19_algos/main_loglog____env1-1_4978916725373351070.png'...
       Saved! 'plots/SP__K3_T20000_N1000__19_algos/main_loglog____env1-1_4978916725373351070.png' created of size '268861b', at 'Tue Mar 26 05:26:27 2019' ...
Saving figure with format pdf, to file 'plots/SP__K3_T20000_N1000__19_algos/main_loglog____env1-1_4978916725373351070.pdf'...
       Saved! 'plots/SP__K3_T20000_N1000__19_algos/main_loglog____env1-1_4978916725373351070.pdf' created of size '60826b', at 'Tue Mar 26 05:26:28 2019' ...
 - Plotting the mean rewards, and saving the plot to plots/SP__K3_T20000_N1000__19_algos/main_Normalized____env1-1_4978916725373351070 ...

This MAB problem has: 
 - a [Lai & Robbins] complexity constant C(mu) = 1.45 for 1-player problem... 
 - a Optimal Arm Identification factor H_OI(mu) = 36.67% ...
Warning: forcing to use putatright = True because there is 19 items in the legend.
Saving figure with format png, to file 'plots/SP__K3_T20000_N1000__19_algos/main_Normalized____env1-1_4978916725373351070.png'...
       Saved! 'plots/SP__K3_T20000_N1000__19_algos/main_Normalized____env1-1_4978916725373351070.png' created of size '238292b', at 'Tue Mar 26 05:26:31 2019' ...
Saving figure with format pdf, to file 'plots/SP__K3_T20000_N1000__19_algos/main_Normalized____env1-1_4978916725373351070.pdf'...
       Saved! 'plots/SP__K3_T20000_N1000__19_algos/main_Normalized____env1-1_4978916725373351070.pdf' created of size '59832b', at 'Tue Mar 26 05:26:31 2019' ...
Warning: forcing to use putatright = True because there is 19 items in the legend.
Saving figure with format png, to file 'plots/SP__K3_T20000_N1000__19_algos/main_HistogramsRegret____env1-1_4978916725373351070.png'...
       Saved! 'plots/SP__K3_T20000_N1000__19_algos/main_HistogramsRegret____env1-1_4978916725373351070.png' created of size '216192b', at 'Tue Mar 26 05:26:33 2019' ...
Saving figure with format pdf, to file 'plots/SP__K3_T20000_N1000__19_algos/main_HistogramsRegret____env1-1_4978916725373351070.pdf'...
       Saved! 'plots/SP__K3_T20000_N1000__19_algos/main_HistogramsRegret____env1-1_4978916725373351070.pdf' created of size '62763b', at 'Tue Mar 26 05:26:33 2019' ...
 - Plotting the histograms of regrets, and saving the plot to plots/SP__K3_T20000_N1000__19_algos/main_HistogramsRegret____env1-1_4978916725373351070 ...
  and saving the plot to plots/SP__K3_T20000_N1000__19_algos/main_HistogramsRegret_shareX____env1-1_4978916725373351070 ...
Saving figure with format png, to file 'plots/SP__K3_T20000_N1000__19_algos/main_HistogramsRegret_shareX____env1-1_4978916725373351070.png'...
       Saved! 'plots/SP__K3_T20000_N1000__19_algos/main_HistogramsRegret_shareX____env1-1_4978916725373351070.png' created of size '218870b', at 'Tue Mar 26 05:26:34 2019' ...
Saving figure with format pdf, to file 'plots/SP__K3_T20000_N1000__19_algos/main_HistogramsRegret_shareX____env1-1_4978916725373351070.pdf'...
       Saved! 'plots/SP__K3_T20000_N1000__19_algos/main_HistogramsRegret_shareX____env1-1_4978916725373351070.pdf' created of size '73675b', at 'Tue Mar 26 05:26:35 2019' ...
 - Plotting the histograms of regrets for each algorithm separately, and saving the plots ...
  and saving the plot to plots/SP__K3_T20000_N1000__19_algos/main_HistogramsRegret____env1-1_4978916725373351070 ...
Saving figure with format png, to file 'plots/SP__K3_T20000_N1000__19_algos/main_HistogramsRegret____env1-1_4978916725373351070__Algo_1_20.png'...
       Saved! 'plots/SP__K3_T20000_N1000__19_algos/main_HistogramsRegret____env1-1_4978916725373351070__Algo_1_20.png' created of size '98172b', at 'Tue Mar 26 05:26:36 2019' ...
Saving figure with format pdf, to file 'plots/SP__K3_T20000_N1000__19_algos/main_HistogramsRegret____env1-1_4978916725373351070__Algo_1_20.pdf'...
       Saved! 'plots/SP__K3_T20000_N1000__19_algos/main_HistogramsRegret____env1-1_4978916725373351070__Algo_1_20.pdf' created of size '26304b', at 'Tue Mar 26 05:26:36 2019' ...
Saving figure with format png, to file 'plots/SP__K3_T20000_N1000__19_algos/main_HistogramsRegret____env1-1_4978916725373351070__Algo_2_20.png'...
       Saved! 'plots/SP__K3_T20000_N1000__19_algos/main_HistogramsRegret____env1-1_4978916725373351070__Algo_2_20.png' created of size '98210b', at 'Tue Mar 26 05:26:36 2019' ...
Saving figure with format pdf, to file 'plots/SP__K3_T20000_N1000__19_algos/main_HistogramsRegret____env1-1_4978916725373351070__Algo_2_20.pdf'...
       Saved! 'plots/SP__K3_T20000_N1000__19_algos/main_HistogramsRegret____env1-1_4978916725373351070__Algo_2_20.pdf' created of size '26736b', at 'Tue Mar 26 05:26:36 2019' ...
Saving figure with format png, to file 'plots/SP__K3_T20000_N1000__19_algos/main_HistogramsRegret____env1-1_4978916725373351070__Algo_3_20.png'...
       Saved! 'plots/SP__K3_T20000_N1000__19_algos/main_HistogramsRegret____env1-1_4978916725373351070__Algo_3_20.png' created of size '103569b', at 'Tue Mar 26 05:26:37 2019' ...
Saving figure with format pdf, to file 'plots/SP__K3_T20000_N1000__19_algos/main_HistogramsRegret____env1-1_4978916725373351070__Algo_3_20.pdf'...
       Saved! 'plots/SP__K3_T20000_N1000__19_algos/main_HistogramsRegret____env1-1_4978916725373351070__Algo_3_20.pdf' created of size '30194b', at 'Tue Mar 26 05:26:37 2019' ...
Saving figure with format png, to file 'plots/SP__K3_T20000_N1000__19_algos/main_HistogramsRegret____env1-1_4978916725373351070__Algo_4_20.png'...
       Saved! 'plots/SP__K3_T20000_N1000__19_algos/main_HistogramsRegret____env1-1_4978916725373351070__Algo_4_20.png' created of size '98646b', at 'Tue Mar 26 05:26:37 2019' ...
Saving figure with format pdf, to file 'plots/SP__K3_T20000_N1000__19_algos/main_HistogramsRegret____env1-1_4978916725373351070__Algo_4_20.pdf'...
       Saved! 'plots/SP__K3_T20000_N1000__19_algos/main_HistogramsRegret____env1-1_4978916725373351070__Algo_4_20.pdf' created of size '30933b', at 'Tue Mar 26 05:26:37 2019' ...
Saving figure with format png, to file 'plots/SP__K3_T20000_N1000__19_algos/main_HistogramsRegret____env1-1_4978916725373351070__Algo_5_20.png'...
       Saved! 'plots/SP__K3_T20000_N1000__19_algos/main_HistogramsRegret____env1-1_4978916725373351070__Algo_5_20.png' created of size '109745b', at 'Tue Mar 26 05:26:37 2019' ...
Saving figure with format pdf, to file 'plots/SP__K3_T20000_N1000__19_algos/main_HistogramsRegret____env1-1_4978916725373351070__Algo_5_20.pdf'...
       Saved! 'plots/SP__K3_T20000_N1000__19_algos/main_HistogramsRegret____env1-1_4978916725373351070__Algo_5_20.pdf' created of size '30490b', at 'Tue Mar 26 05:26:37 2019' ...
Saving figure with format png, to file 'plots/SP__K3_T20000_N1000__19_algos/main_HistogramsRegret____env1-1_4978916725373351070__Algo_6_20.png'...
       Saved! 'plots/SP__K3_T20000_N1000__19_algos/main_HistogramsRegret____env1-1_4978916725373351070__Algo_6_20.png' created of size '101677b', at 'Tue Mar 26 05:26:38 2019' ...
Saving figure with format pdf, to file 'plots/SP__K3_T20000_N1000__19_algos/main_HistogramsRegret____env1-1_4978916725373351070__Algo_6_20.pdf'...
       Saved! 'plots/SP__K3_T20000_N1000__19_algos/main_HistogramsRegret____env1-1_4978916725373351070__Algo_6_20.pdf' created of size '30155b', at 'Tue Mar 26 05:26:38 2019' ...
Saving figure with format png, to file 'plots/SP__K3_T20000_N1000__19_algos/main_HistogramsRegret____env1-1_4978916725373351070__Algo_7_20.png'...
       Saved! 'plots/SP__K3_T20000_N1000__19_algos/main_HistogramsRegret____env1-1_4978916725373351070__Algo_7_20.png' created of size '99835b', at 'Tue Mar 26 05:26:38 2019' ...
Saving figure with format pdf, to file 'plots/SP__K3_T20000_N1000__19_algos/main_HistogramsRegret____env1-1_4978916725373351070__Algo_7_20.pdf'...
       Saved! 'plots/SP__K3_T20000_N1000__19_algos/main_HistogramsRegret____env1-1_4978916725373351070__Algo_7_20.pdf' created of size '30789b', at 'Tue Mar 26 05:26:38 2019' ...
Saving figure with format png, to file 'plots/SP__K3_T20000_N1000__19_algos/main_HistogramsRegret____env1-1_4978916725373351070__Algo_8_20.png'...
       Saved! 'plots/SP__K3_T20000_N1000__19_algos/main_HistogramsRegret____env1-1_4978916725373351070__Algo_8_20.png' created of size '105057b', at 'Tue Mar 26 05:26:38 2019' ...
Saving figure with format pdf, to file 'plots/SP__K3_T20000_N1000__19_algos/main_HistogramsRegret____env1-1_4978916725373351070__Algo_8_20.pdf'...
       Saved! 'plots/SP__K3_T20000_N1000__19_algos/main_HistogramsRegret____env1-1_4978916725373351070__Algo_8_20.pdf' created of size '29947b', at 'Tue Mar 26 05:26:39 2019' ...
Saving figure with format png, to file 'plots/SP__K3_T20000_N1000__19_algos/main_HistogramsRegret____env1-1_4978916725373351070__Algo_9_20.png'...
       Saved! 'plots/SP__K3_T20000_N1000__19_algos/main_HistogramsRegret____env1-1_4978916725373351070__Algo_9_20.png' created of size '103977b', at 'Tue Mar 26 05:26:39 2019' ...
Saving figure with format pdf, to file 'plots/SP__K3_T20000_N1000__19_algos/main_HistogramsRegret____env1-1_4978916725373351070__Algo_9_20.pdf'...
       Saved! 'plots/SP__K3_T20000_N1000__19_algos/main_HistogramsRegret____env1-1_4978916725373351070__Algo_9_20.pdf' created of size '32641b', at 'Tue Mar 26 05:26:39 2019' ...
Saving figure with format png, to file 'plots/SP__K3_T20000_N1000__19_algos/main_HistogramsRegret____env1-1_4978916725373351070__Algo_10_20.png'...
       Saved! 'plots/SP__K3_T20000_N1000__19_algos/main_HistogramsRegret____env1-1_4978916725373351070__Algo_10_20.png' created of size '107019b', at 'Tue Mar 26 05:26:39 2019' ...
Saving figure with format pdf, to file 'plots/SP__K3_T20000_N1000__19_algos/main_HistogramsRegret____env1-1_4978916725373351070__Algo_10_20.pdf'...
       Saved! 'plots/SP__K3_T20000_N1000__19_algos/main_HistogramsRegret____env1-1_4978916725373351070__Algo_10_20.pdf' created of size '32715b', at 'Tue Mar 26 05:26:39 2019' ...
Saving figure with format png, to file 'plots/SP__K3_T20000_N1000__19_algos/main_HistogramsRegret____env1-1_4978916725373351070__Algo_11_20.png'...
       Saved! 'plots/SP__K3_T20000_N1000__19_algos/main_HistogramsRegret____env1-1_4978916725373351070__Algo_11_20.png' created of size '112364b', at 'Tue Mar 26 05:26:40 2019' ...
Saving figure with format pdf, to file 'plots/SP__K3_T20000_N1000__19_algos/main_HistogramsRegret____env1-1_4978916725373351070__Algo_11_20.pdf'...
       Saved! 'plots/SP__K3_T20000_N1000__19_algos/main_HistogramsRegret____env1-1_4978916725373351070__Algo_11_20.pdf' created of size '33457b', at 'Tue Mar 26 05:26:40 2019' ...
Saving figure with format png, to file 'plots/SP__K3_T20000_N1000__19_algos/main_HistogramsRegret____env1-1_4978916725373351070__Algo_12_20.png'...
       Saved! 'plots/SP__K3_T20000_N1000__19_algos/main_HistogramsRegret____env1-1_4978916725373351070__Algo_12_20.png' created of size '97928b', at 'Tue Mar 26 05:26:40 2019' ...
Saving figure with format pdf, to file 'plots/SP__K3_T20000_N1000__19_algos/main_HistogramsRegret____env1-1_4978916725373351070__Algo_12_20.pdf'...
       Saved! 'plots/SP__K3_T20000_N1000__19_algos/main_HistogramsRegret____env1-1_4978916725373351070__Algo_12_20.pdf' created of size '27870b', at 'Tue Mar 26 05:26:40 2019' ...
Saving figure with format png, to file 'plots/SP__K3_T20000_N1000__19_algos/main_HistogramsRegret____env1-1_4978916725373351070__Algo_13_20.png'...
       Saved! 'plots/SP__K3_T20000_N1000__19_algos/main_HistogramsRegret____env1-1_4978916725373351070__Algo_13_20.png' created of size '108825b', at 'Tue Mar 26 05:26:40 2019' ...
Saving figure with format pdf, to file 'plots/SP__K3_T20000_N1000__19_algos/main_HistogramsRegret____env1-1_4978916725373351070__Algo_13_20.pdf'...
       Saved! 'plots/SP__K3_T20000_N1000__19_algos/main_HistogramsRegret____env1-1_4978916725373351070__Algo_13_20.pdf' created of size '28274b', at 'Tue Mar 26 05:26:41 2019' ...
Saving figure with format png, to file 'plots/SP__K3_T20000_N1000__19_algos/main_HistogramsRegret____env1-1_4978916725373351070__Algo_14_20.png'...
       Saved! 'plots/SP__K3_T20000_N1000__19_algos/main_HistogramsRegret____env1-1_4978916725373351070__Algo_14_20.png' created of size '102936b', at 'Tue Mar 26 05:26:41 2019' ...
Saving figure with format pdf, to file 'plots/SP__K3_T20000_N1000__19_algos/main_HistogramsRegret____env1-1_4978916725373351070__Algo_14_20.pdf'...
       Saved! 'plots/SP__K3_T20000_N1000__19_algos/main_HistogramsRegret____env1-1_4978916725373351070__Algo_14_20.pdf' created of size '28547b', at 'Tue Mar 26 05:26:41 2019' ...
Saving figure with format png, to file 'plots/SP__K3_T20000_N1000__19_algos/main_HistogramsRegret____env1-1_4978916725373351070__Algo_15_20.png'...
       Saved! 'plots/SP__K3_T20000_N1000__19_algos/main_HistogramsRegret____env1-1_4978916725373351070__Algo_15_20.png' created of size '102186b', at 'Tue Mar 26 05:26:41 2019' ...
Saving figure with format pdf, to file 'plots/SP__K3_T20000_N1000__19_algos/main_HistogramsRegret____env1-1_4978916725373351070__Algo_15_20.pdf'...
       Saved! 'plots/SP__K3_T20000_N1000__19_algos/main_HistogramsRegret____env1-1_4978916725373351070__Algo_15_20.pdf' created of size '26722b', at 'Tue Mar 26 05:26:41 2019' ...
Saving figure with format png, to file 'plots/SP__K3_T20000_N1000__19_algos/main_HistogramsRegret____env1-1_4978916725373351070__Algo_16_20.png'...
       Saved! 'plots/SP__K3_T20000_N1000__19_algos/main_HistogramsRegret____env1-1_4978916725373351070__Algo_16_20.png' created of size '98740b', at 'Tue Mar 26 05:26:42 2019' ...
Saving figure with format pdf, to file 'plots/SP__K3_T20000_N1000__19_algos/main_HistogramsRegret____env1-1_4978916725373351070__Algo_16_20.pdf'...
       Saved! 'plots/SP__K3_T20000_N1000__19_algos/main_HistogramsRegret____env1-1_4978916725373351070__Algo_16_20.pdf' created of size '26960b', at 'Tue Mar 26 05:26:42 2019' ...
Saving figure with format png, to file 'plots/SP__K3_T20000_N1000__19_algos/main_HistogramsRegret____env1-1_4978916725373351070__Algo_17_20.png'...
       Saved! 'plots/SP__K3_T20000_N1000__19_algos/main_HistogramsRegret____env1-1_4978916725373351070__Algo_17_20.png' created of size '102092b', at 'Tue Mar 26 05:26:42 2019' ...
Saving figure with format pdf, to file 'plots/SP__K3_T20000_N1000__19_algos/main_HistogramsRegret____env1-1_4978916725373351070__Algo_17_20.pdf'...
       Saved! 'plots/SP__K3_T20000_N1000__19_algos/main_HistogramsRegret____env1-1_4978916725373351070__Algo_17_20.pdf' created of size '27384b', at 'Tue Mar 26 05:26:42 2019' ...
Saving figure with format png, to file 'plots/SP__K3_T20000_N1000__19_algos/main_HistogramsRegret____env1-1_4978916725373351070__Algo_18_20.png'...
       Saved! 'plots/SP__K3_T20000_N1000__19_algos/main_HistogramsRegret____env1-1_4978916725373351070__Algo_18_20.png' created of size '97036b', at 'Tue Mar 26 05:26:42 2019' ...
Saving figure with format pdf, to file 'plots/SP__K3_T20000_N1000__19_algos/main_HistogramsRegret____env1-1_4978916725373351070__Algo_18_20.pdf'...
       Saved! 'plots/SP__K3_T20000_N1000__19_algos/main_HistogramsRegret____env1-1_4978916725373351070__Algo_18_20.pdf' created of size '27726b', at 'Tue Mar 26 05:26:42 2019' ...
Saving figure with format png, to file 'plots/SP__K3_T20000_N1000__19_algos/main_HistogramsRegret____env1-1_4978916725373351070__Algo_19_20.png'...
       Saved! 'plots/SP__K3_T20000_N1000__19_algos/main_HistogramsRegret____env1-1_4978916725373351070__Algo_19_20.png' created of size '96639b', at 'Tue Mar 26 05:26:43 2019' ...
Saving figure with format pdf, to file 'plots/SP__K3_T20000_N1000__19_algos/main_HistogramsRegret____env1-1_4978916725373351070__Algo_19_20.pdf'...
       Saved! 'plots/SP__K3_T20000_N1000__19_algos/main_HistogramsRegret____env1-1_4978916725373351070__Algo_19_20.pdf' created of size '27303b', at 'Tue Mar 26 05:26:43 2019' ...


==> To see the figures, do :
eog plots/SP__K3_T20000_N1000__19_algos/main*4978916725373351070.png
Done for simulations main.py ...
